…
    df_graph <- df |>
      pivot_longer(
        cols = Wheat:Rice,
        names_to = "Crop",
        values_to = "Yield"
      )

    df_graph

    ## # A tibble: 60 × 3
    ##    Fertilizer Crop  Yield
    ##    <chr>      <chr> <dbl>
    ##  1 Blend X    Wheat   123
    ##  2 Blend X    Corn    128
    ##  3 Blend X    Soy     166
    ##  4 Blend X    Rice    151
    ##  5 Blend X    Wheat   156
    ##  6 Blend X    Corn    150
    ##  7 Blend X    Soy     178
    ##  8 Blend X    Rice    125
    ##  9 Blend X    Wheat   112
    ## 10 Blend X    Corn    174
    ## # ℹ 50 more rows
…
